fsl/regs32x32/test_regs32x32.vcd
$date
	Mon May 18 15:43:11 2020
$end
$version
	Icarus Verilog
$end
$timescale
	1s
$end
$scope module tb $end
$scope module test_regs32x32_instance $end
$var wire 1 ! _regs_clear $end
$var wire 1 " _regs_m_clock $end
$var wire 1 # _regs_p_reset $end
$var wire 1 $ m_clock $end
$var wire 1 % p_reset $end
$var wire 56 & p [55:0] $end
$var wire 16 ' i [15:0] $end
$var wire 32 ( d [31:0] $end
$var wire 5 ) c [4:0] $end
$var wire 32 * b1 [31:0] $end
$var wire 5 + b [4:0] $end
$var wire 32 , a1 [31:0] $end
$var wire 5 - a [4:0] $end
$var wire 1 . _regs_write $end
$var wire 1 / _regs_read_b $end
$var wire 1 0 _regs_read_a $end
$var wire 5 1 _regs_in_addr [4:0] $end
$var wire 32 2 _regs_in [31:0] $end
$var wire 5 3 _regs_b_addr [4:0] $end
$var wire 32 4 _regs_b [31:0] $end
$var wire 5 5 _regs_a_addr [4:0] $end
$var wire 32 6 _regs_a [31:0] $end
$var wire 1 7 __net5 $end
$var wire 32 8 __net4 [31:0] $end
$var wire 5 9 __net3 [4:0] $end
$var wire 16 : __net2 [15:0] $end
$var wire 1 ; __net1 $end
$var wire 1 < __net0 $end
$var reg 64 = _time [63:0] $end
$var reg 16 > count [15:0] $end
$scope module regs $end
$var wire 1 ? _reg0_clear $end
$var wire 1 @ _reg0_m_clock $end
$var wire 1 A _reg0_p_reset $end
$var wire 1 B _reg1_clear $end
$var wire 1 C _reg1_m_clock $end
$var wire 1 D _reg1_p_reset $end
$var wire 1 E _reg2_clear $end
$var wire 1 F _reg2_m_clock $end
$var wire 1 G _reg2_p_reset $end
$var wire 1 H _reg3_clear $end
$var wire 1 I _reg3_m_clock $end
$var wire 1 J _reg3_p_reset $end
$var wire 5 K a_addr [4:0] $end
$var wire 5 L b_addr [4:0] $end
$var wire 1 ! clear $end
$var wire 32 M in [31:0] $end
$var wire 5 N in_addr [4:0] $end
$var wire 1 " m_clock $end
$var wire 1 # p_reset $end
$var wire 1 0 read_a $end
$var wire 1 / read_b $end
$var wire 1 . write $end
$var wire 32 O b [31:0] $end
$var wire 32 P a [31:0] $end
$var wire 2 Q _write_addr_8_1002 [1:0] $end
$var wire 1 R _reg3_write $end
$var wire 1 S _reg3_read_b $end
$var wire 1 T _reg3_read_a $end
$var wire 3 U _reg3_in_addr [2:0] $end
$var wire 32 V _reg3_in [31:0] $end
$var wire 3 W _reg3_b_addr [2:0] $end
$var wire 32 X _reg3_b [31:0] $end
$var wire 3 Y _reg3_a_addr [2:0] $end
$var wire 32 Z _reg3_a [31:0] $end
$var wire 1 [ _reg2_write $end
$var wire 1 \ _reg2_read_b $end
$var wire 1 ] _reg2_read_a $end
$var wire 3 ^ _reg2_in_addr [2:0] $end
$var wire 32 _ _reg2_in [31:0] $end
$var wire 3 ` _reg2_b_addr [2:0] $end
$var wire 32 a _reg2_b [31:0] $end
$var wire 3 b _reg2_a_addr [2:0] $end
$var wire 32 c _reg2_a [31:0] $end
$var wire 1 d _reg1_write $end
$var wire 1 e _reg1_read_b $end
$var wire 1 f _reg1_read_a $end
$var wire 3 g _reg1_in_addr [2:0] $end
$var wire 32 h _reg1_in [31:0] $end
$var wire 3 i _reg1_b_addr [2:0] $end
$var wire 32 j _reg1_b [31:0] $end
$var wire 3 k _reg1_a_addr [2:0] $end
$var wire 32 l _reg1_a [31:0] $end
$var wire 1 m _reg0_write $end
$var wire 1 n _reg0_read_b $end
$var wire 1 o _reg0_read_a $end
$var wire 3 p _reg0_in_addr [2:0] $end
$var wire 32 q _reg0_in [31:0] $end
$var wire 3 r _reg0_b_addr [2:0] $end
$var wire 32 s _reg0_b [31:0] $end
$var wire 3 t _reg0_a_addr [2:0] $end
$var wire 32 u _reg0_a [31:0] $end
$var wire 2 v _read_b_addr_4_1001 [1:0] $end
$var wire 2 w _read_a_addr_0_1000 [1:0] $end
$var wire 1 x __net9 $end
$var wire 1 y __net8 $end
$var wire 2 z __net7 [1:0] $end
$var wire 1 { __net6 $end
$var wire 1 | __net5 $end
$var wire 1 } __net4 $end
$var wire 1 ~ __net3 $end
$var wire 32 !" __net24 [31:0] $end
$var wire 3 "" __net23 [2:0] $end
$var wire 1 #" __net22 $end
$var wire 32 $" __net21 [31:0] $end
$var wire 3 %" __net20 [2:0] $end
$var wire 1 &" __net2 $end
$var wire 1 '" __net19 $end
$var wire 32 (" __net18 [31:0] $end
$var wire 3 )" __net17 [2:0] $end
$var wire 1 *" __net16 $end
$var wire 32 +" __net15 [31:0] $end
$var wire 3 ," __net14 [2:0] $end
$var wire 1 -" __net13 $end
$var wire 2 ." __net12 [1:0] $end
$var wire 1 /" __net11 $end
$var wire 1 0" __net10 $end
$var wire 2 1" __net1 [1:0] $end
$var wire 1 2" __net0 $end
$scope module reg0 $end
$var wire 3 3" a_addr [2:0] $end
$var wire 3 4" b_addr [2:0] $end
$var wire 1 ? clear $end
$var wire 32 5" in [31:0] $end
$var wire 3 6" in_addr [2:0] $end
$var wire 1 @ m_clock $end
$var wire 1 A p_reset $end
$var wire 1 o read_a $end
$var wire 1 n read_b $end
$var wire 1 m write $end
$var wire 32 7" b [31:0] $end
$var wire 32 8" a [31:0] $end
$var wire 32 9" _read_b_v_8_1001 [31:0] $end
$var wire 32 :" _read_a_v_0_1000 [31:0] $end
$var wire 1 ;" __net9 $end
$var wire 1 <" __net8 $end
$var wire 1 =" __net7 $end
$var wire 1 >" __net6 $end
$var wire 1 ?" __net5 $end
$var wire 1 @" __net4 $end
$var wire 1 A" __net3 $end
$var wire 1 B" __net28 $end
$var wire 1 C" __net27 $end
$var wire 1 D" __net26 $end
$var wire 1 E" __net25 $end
$var wire 1 F" __net24 $end
$var wire 1 G" __net23 $end
$var wire 1 H" __net22 $end
$var wire 1 I" __net21 $end
$var wire 3 J" __net20 [2:0] $end
$var wire 1 K" __net2 $end
$var wire 1 L" __net19 $end
$var wire 1 M" __net18 $end
$var wire 1 N" __net17 $end
$var wire 1 O" __net16 $end
$var wire 1 P" __net15 $end
$var wire 1 Q" __net14 $end
$var wire 1 R" __net13 $end
$var wire 1 S" __net12 $end
$var wire 32 T" __net11 [31:0] $end
$var wire 3 U" __net10 [2:0] $end
$var wire 32 V" __net1 [31:0] $end
$var wire 3 W" __net0 [2:0] $end
$var reg 32 X" reg0 [31:0] $end
$var reg 32 Y" reg1 [31:0] $end
$var reg 32 Z" reg2 [31:0] $end
$var reg 32 [" reg3 [31:0] $end
$var reg 32 \" reg4 [31:0] $end
$var reg 32 ]" reg5 [31:0] $end
$var reg 32 ^" reg6 [31:0] $end
$var reg 32 _" reg7 [31:0] $end
$upscope $end
$scope module reg1 $end
$var wire 3 `" a_addr [2:0] $end
$var wire 3 a" b_addr [2:0] $end
$var wire 1 B clear $end
$var wire 32 b" in [31:0] $end
$var wire 3 c" in_addr [2:0] $end
$var wire 1 C m_clock $end
$var wire 1 D p_reset $end
$var wire 1 f read_a $end
$var wire 1 e read_b $end
$var wire 1 d write $end
$var wire 32 d" b [31:0] $end
$var wire 32 e" a [31:0] $end
$var wire 32 f" _read_b_v_8_1001 [31:0] $end
$var wire 32 g" _read_a_v_0_1000 [31:0] $end
$var wire 1 h" __net9 $end
$var wire 1 i" __net8 $end
$var wire 1 j" __net7 $end
$var wire 1 k" __net6 $end
$var wire 1 l" __net5 $end
$var wire 1 m" __net4 $end
$var wire 1 n" __net3 $end
$var wire 1 o" __net28 $end
$var wire 1 p" __net27 $end
$var wire 1 q" __net26 $end
$var wire 1 r" __net25 $end
$var wire 1 s" __net24 $end
$var wire 1 t" __net23 $end
$var wire 1 u" __net22 $end
$var wire 1 v" __net21 $end
$var wire 3 w" __net20 [2:0] $end
$var wire 1 x" __net2 $end
$var wire 1 y" __net19 $end
$var wire 1 z" __net18 $end
$var wire 1 {" __net17 $end
$var wire 1 |" __net16 $end
$var wire 1 }" __net15 $end
$var wire 1 ~" __net14 $end
$var wire 1 !# __net13 $end
$var wire 1 "# __net12 $end
$var wire 32 ## __net11 [31:0] $end
$var wire 3 $# __net10 [2:0] $end
$var wire 32 %# __net1 [31:0] $end
$var wire 3 &# __net0 [2:0] $end
$var reg 32 '# reg0 [31:0] $end
$var reg 32 (# reg1 [31:0] $end
$var reg 32 )# reg2 [31:0] $end
$var reg 32 *# reg3 [31:0] $end
$var reg 32 +# reg4 [31:0] $end
$var reg 32 ,# reg5 [31:0] $end
$var reg 32 -# reg6 [31:0] $end
$var reg 32 .# reg7 [31:0] $end
$upscope $end
$scope module reg2 $end
$var wire 3 /# a_addr [2:0] $end
$var wire 3 0# b_addr [2:0] $end
$var wire 1 E clear $end
$var wire 32 1# in [31:0] $end
$var wire 3 2# in_addr [2:0] $end
$var wire 1 F m_clock $end
$var wire 1 G p_reset $end
$var wire 1 ] read_a $end
$var wire 1 \ read_b $end
$var wire 1 [ write $end
$var wire 32 3# b [31:0] $end
$var wire 32 4# a [31:0] $end
$var wire 32 5# _read_b_v_8_1001 [31:0] $end
$var wire 32 6# _read_a_v_0_1000 [31:0] $end
$var wire 1 7# __net9 $end
$var wire 1 8# __net8 $end
$var wire 1 9# __net7 $end
$var wire 1 :# __net6 $end
$var wire 1 ;# __net5 $end
$var wire 1 <# __net4 $end
$var wire 1 =# __net3 $end
$var wire 1 ># __net28 $end
$var wire 1 ?# __net27 $end
$var wire 1 @# __net26 $end
$var wire 1 A# __net25 $end
$var wire 1 B# __net24 $end
$var wire 1 C# __net23 $end
$var wire 1 D# __net22 $end
$var wire 1 E# __net21 $end
$var wire 3 F# __net20 [2:0] $end
$var wire 1 G# __net2 $end
$var wire 1 H# __net19 $end
$var wire 1 I# __net18 $end
$var wire 1 J# __net17 $end
$var wire 1 K# __net16 $end
$var wire 1 L# __net15 $end
$var wire 1 M# __net14 $end
$var wire 1 N# __net13 $end
$var wire 1 O# __net12 $end
$var wire 32 P# __net11 [31:0] $end
$var wire 3 Q# __net10 [2:0] $end
$var wire 32 R# __net1 [31:0] $end
$var wire 3 S# __net0 [2:0] $end
$var reg 32 T# reg0 [31:0] $end
$var reg 32 U# reg1 [31:0] $end
$var reg 32 V# reg2 [31:0] $end
$var reg 32 W# reg3 [31:0] $end
$var reg 32 X# reg4 [31:0] $end
$var reg 32 Y# reg5 [31:0] $end
$var reg 32 Z# reg6 [31:0] $end
$var reg 32 [# reg7 [31:0] $end
$upscope $end
$scope module reg3 $end
$var wire 3 \# a_addr [2:0] $end
$var wire 3 ]# b_addr [2:0] $end
$var wire 1 H clear $end
$var wire 32 ^# in [31:0] $end
$var wire 3 _# in_addr [2:0] $end
$var wire 1 I m_clock $end
$var wire 1 J p_reset $end
$var wire 1 T read_a $end
$var wire 1 S read_b $end
$var wire 1 R write $end
$var wire 32 `# b [31:0] $end
$var wire 32 a# a [31:0] $end
$var wire 32 b# _read_b_v_8_1001 [31:0] $end
$var wire 32 c# _read_a_v_0_1000 [31:0] $end
$var wire 1 d# __net9 $end
$var wire 1 e# __net8 $end
$var wire 1 f# __net7 $end
$var wire 1 g# __net6 $end
$var wire 1 h# __net5 $end
$var wire 1 i# __net4 $end
$var wire 1 j# __net3 $end
$var wire 1 k# __net28 $end
$var wire 1 l# __net27 $end
$var wire 1 m# __net26 $end
$var wire 1 n# __net25 $end
$var wire 1 o# __net24 $end
$var wire 1 p# __net23 $end
$var wire 1 q# __net22 $end
$var wire 1 r# __net21 $end
$var wire 3 s# __net20 [2:0] $end
$var wire 1 t# __net2 $end
$var wire 1 u# __net19 $end
$var wire 1 v# __net18 $end
$var wire 1 w# __net17 $end
$var wire 1 x# __net16 $end
$var wire 1 y# __net15 $end
$var wire 1 z# __net14 $end
$var wire 1 {# __net13 $end
$var wire 1 |# __net12 $end
$var wire 32 }# __net11 [31:0] $end
$var wire 3 ~# __net10 [2:0] $end
$var wire 32 !$ __net1 [31:0] $end
$var wire 3 "$ __net0 [2:0] $end
$var reg 32 #$ reg0 [31:0] $end
$var reg 32 $$ reg1 [31:0] $end
$var reg 32 %$ reg2 [31:0] $end
$var reg 32 &$ reg3 [31:0] $end
$var reg 32 '$ reg4 [31:0] $end
$var reg 32 ($ reg5 [31:0] $end
$var reg 32 )$ reg6 [31:0] $end
$var reg 32 *$ reg7 [31:0] $end
$upscope $end
$upscope $end
$upscope $end
$upscope $end
$enddefinitions $end
#0
$dumpvars
bx *$
bx )$
bx ($
bx '$
bx &$
bx %$
bx $$
bx #$
bx "$
bx !$
bx ~#
bx }#
x|#
x{#
xz#
xy#
xx#
xw#
xv#
xu#
xt#
bx s#
xr#
xq#
xp#
xo#
xn#
xm#
xl#
xk#
xj#
xi#
xh#
xg#
xf#
xe#
xd#
bx c#
bx b#
bx a#
bx `#
bx _#
bx ^#
bx ]#
bx \#
bx [#
bx Z#
bx Y#
bx X#
bx W#
bx V#
bx U#
bx T#
bx S#
bx R#
bx Q#
bx P#
xO#
xN#
xM#
xL#
xK#
xJ#
xI#
xH#
xG#
bx F#
xE#
xD#
xC#
xB#
xA#
x@#
x?#
x>#
x=#
x<#
x;#
x:#
x9#
x8#
x7#
bx 6#
bx 5#
bx 4#
bx 3#
bx 2#
bx 1#
bx 0#
bx /#
bx .#
bx -#
bx ,#
bx +#
bx *#
bx )#
bx (#
bx '#
bx &#
bx %#
bx $#
bx ##
x"#
x!#
x~"
x}"
x|"
x{"
xz"
xy"
xx"
bx w"
xv"
xu"
xt"
xs"
xr"
xq"
xp"
xo"
xn"
xm"
xl"
xk"
xj"
xi"
xh"
bx g"
bx f"
bx e"
bx d"
bx c"
bx b"
bx a"
bx `"
bx _"
bx ^"
bx ]"
bx \"
bx ["
bx Z"
bx Y"
bx X"
bx W"
bx V"
bx U"
bx T"
xS"
xR"
xQ"
xP"
xO"
xN"
xM"
xL"
xK"
bx J"
xI"
xH"
xG"
xF"
xE"
xD"
xC"
xB"
xA"
x@"
x?"
x>"
x="
x<"
x;"
bx :"
bx 9"
bx 8"
bx 7"
bx 6"
bx 5"
bx 4"
bx 3"
x2"
bx 1"
x0"
x/"
bx ."
x-"
bx ,"
bx +"
x*"
bx )"
bx ("
x'"
x&"
bx %"
bx $"
x#"
bx ""
bx !"
x~
x}
x|
x{
bx z
xy
xx
bx w
bx v
bx u
bx t
bx s
bx r
bx q
bx p
xo
xn
xm
bx l
bx k
bx j
bx i
bx h
bx g
xf
xe
xd
bx c
bx b
bx a
bx `
bx _
bx ^
x]
x\
x[
bx Z
bx Y
bx X
bx W
bx V
bx U
xT
xS
xR
bx Q
bx P
bx O
bx N
bx M
bx L
bx K
xJ
xI
0H
xG
xF
0E
xD
xC
0B
xA
x@
0?
bx >
b0 =
0<
x;
bx :
bx 9
bx 8
x7
bx 6
bx 5
bx 4
bx 3
bx 2
bx 1
x0
x/
x.
bx -
bx ,
bx +
bx *
bx )
bx (
bx '
bx &
x%
x$
x#
x"
0!
$end
#1
0]
0T
0\
0S
0f
0e
0[
0R
0o
0n
0d
0m
00
0/
0.
0;
07
b0 ["
b0 ^"
b0 Z"
b0 ]"
b0 \"
b0 _"
b0 Y"
b0 X"
b0 *#
b0 -#
b0 )#
b0 ,#
b0 +#
b0 .#
b0 (#
b0 '#
b0 W#
b0 Z#
b0 V#
b0 Y#
b0 X#
b0 [#
b0 U#
b0 T#
b0 &$
b0 )$
b0 %$
b0 ($
b0 '$
b0 *$
b0 $$
b0 #$
b0 >
0@
0C
0F
0I
0"
0$
1A
1D
1G
1J
1#
1%
#5
b1 =
1@
1C
1F
1I
1"
1$
#10
0@
0C
0F
0I
0"
0$
#11
0A
0D
0G
0J
0#
0%
#15
1<
b10 =
b1 >
1@
1C
1F
1I
1"
1$
#20
0@
0C
0F
0I
0"
0$
#25
b0 *
b0 ,
b0 4
b0 O
b0 6
b0 P
b0 s
b0 7"
b0 u
b0 8"
b0 9"
b0 :"
b0 T"
b0 V"
0r#
0q#
0p#
0o#
0n#
1m#
0l#
0k#
b101 s#
b101 U
b101 _#
b10110101000100111110000100000000 V
b10110101000100111110000100000000 ^#
b10110101000100111110000100000000 !"
b101 ""
0S"
1R"
0Q"
0P"
0O"
0N"
0M"
0L"
0K"
0A"
0@"
0?"
0>"
1="
0<"
0;"
b1 U"
b101 W"
b1 r
b1 4"
b101 t
b101 3"
1y
0x
0/"
00"
1&"
0~
0}
0|
0-"
0*"
0'"
1#"
b0 z
b0 1"
b11 ."
b11 Q
0{
b0 v
02"
b0 w
b10110101000100111110000100000000 2
b10110101000100111110000100000000 M
b10111 1
b10111 N
0]
0T
0\
0S
b10110101000100111110000100000000 8
b10111 9
b100 3
b100 L
b10100 5
b10100 K
0f
0e
0[
1R
b10110101000100111110000100000000 (
b10111 )
b100 +
b10100 -
1o
1n
0d
0m
b10100000001000001011110110101000100111110000100000000 &
b0 :
10
1/
1.
b0 '
1;
0<
b11 =
b10 >
1@
1C
1F
1I
1"
1$
#30
0@
0C
0F
0I
0"
0$
#35
b0 c
b0 4#
b0 6#
b0 R#
bx V"
0G#
0=#
0<#
0;#
0:#
09#
08#
17#
0v"
1u"
0t"
0s"
0r"
0q"
0p"
0o"
xr#
xp#
xo#
xn#
xl#
xk#
0R
b0 ,
b111 S#
b1 w"
b0 6
b0 P
1]
b111 b
b111 /#
1d
b1 g
b1 c"
b11010000100110100010111011010101 h
b11010000100110100010111011010101 b"
b11010000100110100010111011010101 ("
b1 )"
xK"
xA"
x@"
x?"
x>"
x<"
bx :"
bx u
bx 8"
xq#
xm#
0o
1*"
0#"
bx s#
0R"
1P"
0&"
1}
x="
x;"
bx U
bx _#
b1 ."
bx V
bx ^#
bx ""
b1 Q
b11 U"
b10 1"
bx W"
bx !"
b11 r
b11 4"
b10 w
bx t
bx 3"
b11010000100110100010111011010101 2
b11010000100110100010111011010101 M
b101 1
b101 N
b11010000100110100010111011010101 8
b101 9
b1100 3
b1100 L
b11110 5
b11110 K
b11010000100110100010111011010101 (
b101 )
b1100 +
b11110 -
b11110000011000000010111010000100110100010111011010101 &
b1 :
b1 '
b10110101000100111110000100000000 ($
b100 =
b11 >
1@
1C
1F
1I
1"
1$
#40
0@
0C
0F
0I
0"
0$
#45
b0 l
b0 e"
b0 g"
b0 %#
bx R#
1x"
0n"
0m"
0l"
0k"
0j"
0i"
0h"
b0 ,
b0 6
b0 P
x=#
x<#
x;#
x:#
x9#
x8#
bx 6#
bx c
bx 4#
b0 &#
0]
1f
b0 k
b0 `"
0u"
1s"
b11 w"
1~
0}
xG#
x7#
b11 g
b11 c"
b11011011010110000000110001100101 h
b11011011010110000000110001100101 b"
b11 )"
b1 1"
bx S#
b11011011010110000000110001100101 ("
b1 w
bx b
bx /#
b11011011010110000000110001100101 2
b11011011010110000000110001100101 M
b1101 1
b1101 N
b11011011010110000000110001100101 8
b1101 9
b1 5
b1 K
b11011011010110000000110001100101 (
b1101 )
b1 -
b1000011000000110111011011010110000000110001100101 &
b10 :
b10 '
b11010000100110100010111011010101 (#
b101 =
b100 >
1@
1C
1F
1I
1"
1$
#50
0@
0C
0F
0I
0"
0$
#55
b0 c
b0 4#
b0 6#
b0 R#
bx %#
0G#
1=#
0<#
0;#
0:#
09#
08#
07#
0I"
0H"
1G"
0F"
0E"
0D"
0C"
0B"
b0 ,
xv"
xu"
xr"
xq"
xp"
xo"
b0 6
b0 P
b1 S#
b10 J"
0d
xm"
xl"
xk"
xj"
xi"
xh"
bx g"
bx l
bx e"
1]
b1 b
b1 /#
1m
b10 p
b10 6"
b110100101000101011001111100101 q
b110100101000101011001111100101 5"
b110100101000101011001111100101 +"
b10 ,"
0f
xt"
xs"
1-"
0*"
bx w"
0P"
1O"
0~
1}
xx"
xn"
bx g
bx c"
b0 ."
bx h
bx b"
bx )"
b0 Q
b100 U"
b10 1"
bx &#
bx ("
b100 r
b100 4"
b10 w
bx k
bx `"
b110100101000101011001111100101 2
b110100101000101011001111100101 M
b1000 1
b1000 N
b110100101000101011001111100101 8
b1000 9
b10000 3
b10000 L
b110 5
b110 K
b110100101000101011001111100101 (
b1000 )
b10000 +
b110 -
b110000100000000100000110100101000101011001111100101 &
b11 :
b11 '
b11011011010110000000110001100101 *#
b110 =
b101 >
1@
1C
1F
1I
1"
1$
#60
0@
0C
0F
0I
0"
0$
#65
b11011011010110000000110001100101 l
b11011011010110000000110001100101 e"
b11011011010110000000110001100101 g"
b11011011010110000000110001100101 %#
b0 *
b0 4
b0 O
bx R#
b0 s
b0 7"
0v"
0u"
0t"
0s"
0r"
0q"
1p"
0o"
b0 9"
b0 T"
b110 w"
0x"
0n"
0m"
1l"
0k"
0j"
0i"
0h"
b11011011010110000000110001100101 ,
1d
b110 g
b110 c"
b11101111110110010011010100111101 h
b11101111110110010011010100111101 b"
b11101111110110010011010100111101 ("
b110 )"
b11011011010110000000110001100101 6
b11011011010110000000110001100101 P
xG#
x<#
x:#
x9#
x8#
x7#
bx 6#
bx c
bx 4#
xI"
xH"
xF"
xE"
xD"
xB"
b11 &#
0]
0m
1f
b11 k
b11 `"
xG"
xC"
0-"
1*"
bx J"
1P"
0O"
1~
0}
x=#
x;#
bx p
bx 6"
b1 ."
bx q
bx 5"
bx ,"
b1 Q
b11 U"
b1 1"
bx S#
bx +"
b11 r
b11 4"
b1 w
bx b
bx /#
b11101111110110010011010100111101 2
b11101111110110010011010100111101 M
b11001 1
b11001 N
b11101111110110010011010100111101 8
b11001 9
b1100 3
b1100 L
b1101 5
b1101 K
b11101111110110010011010100111101 (
b11001 )
b1100 +
b1101 -
b1101000011000001100111101111110110010011010100111101 &
b100 :
b100 '
b110100101000101011001111100101 Z"
b111 =
b110 >
1@
1C
1F
1I
1"
1$
#70
0@
0C
0F
0I
0"
0$
#75
b0 j
b0 d"
b0 f"
b0 ##
bx T"
bx %#
0"#
0!#
0~"
0}"
0|"
0{"
0z"
1y"
1I"
0H"
0G"
0F"
0E"
0D"
0C"
0B"
b0 *
xu"
xt"
xs"
xr"
xq"
xo"
b0 4
b0 O
b111 $#
b0 ,
b0 J"
0d
1e
b111 i
b111 a"
b0 6
b0 P
1m
b0 p
b0 6"
b100011010110010011100011001001 q
b100011010110010011100011001001 5"
b100011010110010011100011001001 +"
b0 ,"
xS"
xR"
xQ"
xO"
xN"
xM"
bx 9"
bx s
bx 7"
xn"
xm"
xk"
xj"
xi"
xh"
bx g"
bx l
bx e"
xv"
xp"
0n
0f
1-"
0*"
bx w"
0y
1x
xP"
xL"
x|
x}
x&"
x~
xx"
xl"
bx g
bx c"
b0 ."
bx h
bx b"
bx )"
b0 Q
b1 z
bx U"
bx 1"
bx &#
bx ("
b1 v
bx r
bx 4"
12"
b0 w
bx k
bx `"
b100011010110010011100011001001 2
b100011010110010011100011001001 M
b0 1
b0 N
b100011010110010011100011001001 8
b0 9
b11101 3
b11101 L
b0 5
b0 K
b100011010110010011100011001001 (
b0 )
b11101 +
b0 -
b111010000000000100011010110010011100011001001 &
b101 :
b101 '
b11101111110110010011010100111101 -#
b1000 =
b111 >
1@
1C
1F
1I
1"
1$
#80
0@
0C
0F
0I
0"
0$
#85
b0 c
b0 4#
b0 6#
b0 X
b0 `#
b0 R#
b0 b#
b0 }#
0G#
0=#
1<#
0;#
0:#
09#
08#
07#
0|#
0{#
0z#
1y#
0x#
0w#
0v#
0u#
b10 S#
bx ##
b10 b
b10 /#
b0 *
b11 ~#
b0 4
b0 O
1S
b11 W
b11 ]#
x"#
x!#
x~"
x|"
x{"
xz"
bx f"
bx j
bx d"
b0 ,
0T
0e
b0 6
b0 P
1]
0I"
1E"
0f
0&"
0~
1}
0|
0o
b100 J"
0x
1/"
x}"
xy"
b10 1"
b100 p
b100 6"
b10010000101101101010101001011101 q
b10010000101101101010101001011101 5"
b100 ,"
b11 z
bx $#
b10010000101101101010101001011101 +"
b11 v
bx i
bx a"
02"
b10 w
b10010000101101101010101001011101 2
b10010000101101101010101001011101 M
b10000 1
b10000 N
b10010000101101101010101001011101 8
b10000 9
b1111 3
b1111 L
b1010 5
b1010 K
b10010000101101101010101001011101 (
b10000 )
b1111 +
b1010 -
b1010000011110001000010010000101101101010101001011101 &
b110 :
b110 '
b100011010110010011100011001001 X"
b1001 =
b1000 >
1@
1C
1F
1I
1"
1$
#90
0@
0C
0F
0I
0"
0$
#95
b0 a
b0 3#
b0 5#
b0 P#
bx }#
0E#
0D#
0C#
0B#
0A#
0@#
0?#
1>#
b111 F#
0O#
0N#
0M#
0L#
0K#
0J#
0I#
1H#
1[
b111 ^
b111 2#
b10111001100101001001000010001010 _
b10111001100101001001000010001010 1#
b10111001100101001001000010001010 $"
b111 %"
b0 *
x|#
x{#
xz#
xx#
xw#
xv#
bx b#
bx X
bx `#
b111 Q#
xI"
xH"
xG"
xF"
xD"
xC"
b0 4
b0 O
0S
1\
b111 `
b111 0#
0m
xE"
xB"
0-"
1'"
bx J"
0/"
10"
xy#
xu#
bx p
bx 6"
b10 ."
bx q
bx 5"
bx ,"
b10 Q
b10 z
bx ~#
bx +"
b10 v
bx W
bx ]#
b10111001100101001001000010001010 2
b10111001100101001001000010001010 M
b11110 1
b11110 N
b10111001100101001001000010001010 8
b11110 9
b11110 3
b11110 L
b10111001100101001001000010001010 (
b11110 )
b11110 +
b1010000111100001111010111001100101001001000010001010 &
b111 :
b111 '
b10010000101101101010101001011101 \"
b1010 =
b1001 >
1@
1C
1F
1I
1"
1$
#100
0@
0C
0F
0I
0"
0$
#105
b0 X
b0 `#
b0 b#
b0 }#
b0 Z
b0 a#
b0 c#
b0 !$
bx R#
0r#
0q#
0p#
0o#
0n#
0m#
1l#
0k#
0|#
0{#
0z#
0y#
0x#
0w#
0v#
1u#
1t#
0j#
0i#
0h#
0g#
0f#
0e#
0d#
b110 s#
xE#
xD#
xC#
xB#
xA#
x@#
b111 ~#
1R
b110 U
b110 _#
b1010101100111011001010000011111 V
b1010101100111011001010000011111 ^#
0[
b1010101100111011001010000011111 !"
b110 ""
1S
b111 W
b111 ]#
xO#
xN#
xM#
xL#
xK#
xJ#
xI#
xH#
bx Q#
b0 ,
b0 "$
x=#
x;#
x:#
x9#
x8#
x7#
bx 6#
bx c
bx 4#
0\
bx `
bx 0#
b0 6
b0 P
1T
b0 Y
b0 \#
0]
x?#
x>#
0'"
1#"
bx F#
1/"
00"
0}
1|
xG#
x<#
bx ^
bx 2#
b11 ."
bx _
bx 1#
bx %"
b11 Q
b11 z
b11 1"
bx S#
bx $"
b11 v
b11 w
bx b
bx /#
b1010101100111011001010000011111 2
b1010101100111011001010000011111 M
b11011 1
b11011 N
b0 *
b1010101100111011001010000011111 8
b11011 9
b11111 3
b11111 L
b11 5
b11 K
b0 4
b0 O
b1010101100111011001010000011111 (
b11011 )
b11111 +
b11 -
bx a
bx 3#
b11000111110001101101010101100111011001010000011111 &
bx 5#
b1000 :
bx P#
b1000 '
b10111001100101001001000010001010 [#
b1011 =
b1010 >
1@
1C
1F
1I
1"
1$
#110
0@
0C
0F
0I
0"
0$
#115
bx }#
b10110101000100111110000100000000 ,
b10110101000100111110000100000000 6
b10110101000100111110000100000000 P
b10110101000100111110000100000000 Z
b10110101000100111110000100000000 a#
b10110101000100111110000100000000 c#
b10110101000100111110000100000000 !$
xr#
xp#
xo#
xn#
xm#
xk#
0I"
1H"
0G"
0F"
0E"
0D"
0C"
0B"
0R
x{#
xz#
xy#
xx#
xw#
xv#
bx b#
bx X
bx `#
b1 J"
0S
1m
b1 p
b1 6"
b1000111111101111101111110010 q
b1000111111101111101111110010 5"
b1000111111101111101111110010 +"
b1 ,"
xq#
xl#
1-"
0#"
bx s#
xx
x0"
xy
x/"
x|#
xu#
0t#
1f#
bx U
bx _#
b0 ."
bx V
bx ^#
bx ""
b0 Q
bx z
bx ~#
b101 "$
bx !"
1{
b0 v
bx W
bx ]#
b101 Y
b101 \#
b1000111111101111101111110010 2
b1000111111101111101111110010 M
b100 1
b100 N
b1000111111101111101111110010 8
b100 9
b0 3
b0 L
b10111 5
b10111 K
b1000111111101111101111110010 (
b100 )
b0 +
b10111 -
b10111000000000000010000001000111111101111101111110010 &
b1001 :
b1001 '
b1010101100111011001010000011111 )$
b1100 =
b1011 >
1@
1C
1F
1I
1"
1$
#120
0@
0C
0F
0I
0"
0$
#125
b11011011010110000000110001100101 j
b11011011010110000000110001100101 d"
b11011011010110000000110001100101 f"
b11011011010110000000110001100101 ##
b0 l
b0 e"
b0 g"
b0 %#
bx !$
0"#
0!#
0~"
1}"
0|"
0{"
0z"
0y"
0v"
0u"
0t"
0s"
0r"
0q"
1p"
0o"
b11 $#
b110 w"
b11 i
b11 a"
0x"
0n"
0m"
0l"
0k"
1j"
0i"
0h"
b0 ,
xt#
xj#
xi#
xh#
xg#
xf#
xe#
xd#
bx c#
bx Z
bx a#
bx "$
1d
b110 g
b110 c"
b10000111101100010010000011011111 h
b10000111101100010010000011011111 b"
b10000111101100010010000011011111 ("
b110 )"
b0 6
b0 P
0T
bx Y
bx \#
xI"
xG"
xF"
xE"
xD"
xB"
b11011011010110000000110001100101 *
0S
b101 &#
0m
b11011011010110000000110001100101 4
b11011011010110000000110001100101 O
0\
1f
b101 k
b101 `"
xH"
xC"
1e
0y
1x
0/"
00"
0-"
1*"
0n
bx J"
b1 z
1~
0|
bx p
bx 6"
b1 ."
bx q
bx 5"
bx ,"
b1 Q
b1 1"
bx +"
0{
b1 v
b1 w
b10000111101100010010000011011111 2
b10000111101100010010000011011111 M
b11001 1
b11001 N
b10000111101100010010000011011111 8
b11001 9
b1101 3
b1101 L
b10101 5
b10101 K
b10000111101100010010000011011111 (
b11001 )
b1101 +
b10101 -
b10101000011010001100110000111101100010010000011011111 &
b1010 :
b1010 '
b1000111111101111101111110010 Y"
b1101 =
b1100 >
1@
1C
1F
1I
1"
1$
#130
0@
0C
0F
0I
0"
0$
